Perioperative Plasma Inflammatory Markers: Arterial vs. Venous
…
Code

cat("FDR-significant (BH-adj p < 0.05):", sum(av_results$significant_FDR), "\n\n")

FDR-significant (BH-adj p < 0.05): 0 

Code

av_results |>
  select(cytokine, mean_arterial, mean_venous, log2FC, p_value, p_adj_BH, direction) |>
  mutate(across(c(mean_arterial, mean_venous), ~ round(., 1)),
         across(c(log2FC, p_value, p_adj_BH), ~ signif(., 3))) |>
  print(n = 30)

# A tibble: 65 × 7
   cytokine         mean_arterial mean_venous  log2FC p_value p_adj_BH direction
   <chr>                    <dbl>       <dbl>   <dbl>   <dbl>    <dbl> <chr>    
 1 IP-10(CXCL10)            116.        137.  -0.233   0.0108    0.458 Venous >…
 2 TNFa                      53.7        58   -0.111   0.0206    0.458 Venous >…
 3 IL-1b                     50.2        58.4 -0.217   0.0254    0.458 Venous >…
 4 TSLP                      50.7        57.9 -0.19    0.031     0.458 Venous >…
 5 IL-13                     46.5        49.5 -0.0895  0.0541    0.458 Venous >…
 6 IL-9                      45.4        49.8 -0.135   0.0545    0.458 Venous >…
 7 IL-27                     63.3        72   -0.186   0.0653    0.458 Venous >…
 8 IL-8(CXCL8)               51          56.8 -0.156   0.0774    0.458 Venous >…
 9 IL-2                      58.4        65.5 -0.166   0.0828    0.458 Venous >…
10 IL-2R                    489.        416.   0.234   0.083     0.458 Arterial…
11 Fractalkine(CX3…          47.5        49.9 -0.0702  0.091     0.458 Venous >…
12 VEGF-A                    97.3        81.9  0.248   0.0917    0.458 Arterial…
13 IL-20                     62.6        68.5 -0.131   0.0917    0.458 Venous >…
14 G-CSF(CSF-3)              56.2        61.1 -0.12    0.1       0.464 Venous >…
15 MIP-3a(CCL20)             51.6        57.2 -0.148   0.136     0.526 Venous >…
16 M-CSF                     42.5        46.6 -0.132   0.147     0.526 Venous >…
17 IL-5                      51.2        56.6 -0.144   0.147     0.526 Venous >…
18 IL-15                     52.7        58.5 -0.15    0.147     0.526 Venous >…
19 IL-23                     54.3        59.3 -0.126   0.17      0.526 Venous >…
20 CD40L                     94.6       102.  -0.11    0.17      0.526 Venous >…
21 ENA-78(CXCL5)             90.8        81.3  0.16    0.17      0.526 Arterial…
22 GROa(CXCL1)               46.9        50.3 -0.1     0.182     0.538 Venous >…
23 MIG(CXCL9)                63.3        65.6 -0.0522  0.224     0.582 Venous >…
24 IL-12p70                  54.4        57.5 -0.0794  0.224     0.582 Venous >…
25 CD30                     142.        138.   0.0465  0.224     0.582 Arterial…
26 MCP-3(CCL7)               53.6        60.1 -0.165   0.248     0.619 Venous >…
27 SDF-1a                   306.        287.   0.0916  0.29      0.625 Arterial…
28 IL-10                     46.2        48.8 -0.0793  0.29      0.625 Venous >…
29 IL-17A(CTLA-8)            64.8        69.1 -0.0939  0.29      0.625 Venous >…
30 MIP-1b(CCL4)             173.        165.   0.0712  0.29      0.625 Arterial…
# ℹ 35 more rows
…
