SomaScan v4.1 Proteomics: Arterial vs. Venous and Covariate Analysis
…
Code

cat("\nTop 30 by adjusted p-value:\n")

Top 30 by adjusted p-value:

Code

av_results |>
  select(Target, EntrezGeneSymbol, logFC, AveExpr, t, P.Value, adj.P.Val, direction) |>
  mutate(across(c(logFC, AveExpr, t, P.Value, adj.P.Val), ~ signif(., 3))) |>
  print(n = 30)

# A tibble: 7,481 × 8
   Target      EntrezGeneSymbol  logFC AveExpr     t P.Value adj.P.Val direction
   <chr>       <chr>             <dbl>   <dbl> <dbl>   <dbl>     <dbl> <chr>    
 1 ISK9        SPINK9           -0.364    8.95 -5.12 1.74e-4     0.497 Venous >…
 2 PDXK        PDXK             -0.3      9.82 -4.89 2.57e-4     0.497 Venous >…
 3 Kallikrein… KLK7             -0.234   10    -3.85 1.86e-3     0.497 Venous >…
 4 GLO2        HAGH             -0.715   15.3  -3.82 2.01e-3     0.497 Venous >…
 5 PMVK        PMVK              0.225    9.96  3.8  2.03e-3     0.497 Arterial…
 6 TAGL        TAGLN            -0.352   11.8  -3.79 2.07e-3     0.497 Venous >…
 7 NDUB6       NDUFB6            0.373   10.7   3.69 2.6 e-3     0.497 Arterial…
 8 suppressio… ST13             -0.445   14.7  -3.69 2.6 e-3     0.497 Venous >…
 9 14-3-3E     YWHAE            -0.34    11.4  -3.68 2.6 e-3     0.497 Venous >…
10 GAB1        GAB1              0.425   10.6   3.65 2.78e-3     0.497 Arterial…
11 ACTN4       ACTN4             0.206   10.1   3.6  3   e-3     0.497 Arterial…
12 p60-Src     SRC               0.887   11.2   3.61 3   e-3     0.497 Arterial…
13 CSNK1G2     CSNK1G2           0.41     9.78  3.61 3.01e-3     0.497 Arterial…
14 DNJC1       DNAJC1            0.524    9.52  3.6  3.05e-3     0.497 Arterial…
15 TAGL        TAGLN            -0.317   11.4  -3.52 3.55e-3     0.497 Venous >…
16 RAB2A       RAB2A             0.471   10.1   3.52 3.62e-3     0.497 Arterial…
17 OMD         OMD              -0.215    9.54 -3.49 3.74e-3     0.497 Venous >…
18 SEM6B       SEMA6B           -0.428   10.5  -3.49 3.8 e-3     0.497 Venous >…
19 UBP46/WDR4… USP46|WDR48       0.18     9.02  3.47 3.86e-3     0.497 Arterial…
20 HEM3        HMBS             -0.745   15.5  -3.46 4.07e-3     0.497 Venous >…
21 TMM24       C2CD2L            0.42    10.3   3.45 4.13e-3     0.497 Arterial…
22 Peroxiredo… PRDX1            -0.543   14.4  -3.43 4.27e-3     0.497 Venous >…
23 SH3L2       SH3BGRL2          0.779   12.7   3.42 4.37e-3     0.497 Arterial…
24 Cytochrome… CYB5A            -0.29    10    -3.42 4.39e-3     0.497 Venous >…
25 EHD3        EHD3              0.659   14.1   3.41 4.41e-3     0.497 Arterial…
26 CLIC4       CLIC4             0.583   10.9   3.4  4.58e-3     0.497 Arterial…
27 cPLA2-alpha PLA2G4A           0.525   11     3.38 4.72e-3     0.497 Arterial…
28 VTI1A       VTI1A             0.173    8.35  3.36 4.83e-3     0.497 Arterial…
29 Histone H2… H2AC11           -0.557   16.2  -3.35 5.03e-3     0.497 Venous >…
30 Integrin a… ITGAV|ITGB6       0.319    9.56  3.35 5.04e-3     0.497 Arterial…
# ℹ 7,451 more rows
…
cat("KEGG GSEA — nominal hits (p < 0.05):", sum(gsea_kegg$pval < 0.05), "\n\n")

KEGG GSEA — nominal hits (p < 0.05): 51 

Code

gsea_kegg |>
  dplyr::filter(pval < 0.05) |>
  select(pathway, NES, pval, padj, size) |>
  mutate(across(c(NES, pval, padj), ~ signif(., 3))) |>
  print(n = 30)

# A tibble: 51 × 5
   pathway                                           NES     pval     padj  size
   <chr>                                           <dbl>    <dbl>    <dbl> <int>
 1 KEGG_CYTOKINE_CYTOKINE_RECEPTOR_INTERACTION     -2.38 1.13e-12 1.92e-10   225
 2 KEGG_FC_GAMMA_R_MEDIATED_PHAGOCYTOSIS            2.27 1.42e- 6 1.2 e- 4    57
 3 KEGG_NEUROTROPHIN_SIGNALING_PATHWAY              2.07 1.57e- 5 8.91e- 4    85
 4 KEGG_COMPLEMENT_AND_COAGULATION_CASCADES        -2.17 2.57e- 5 1.09e- 3    53
 5 KEGG_VEGF_SIGNALING_PATHWAY                      2.08 9.96e- 5 3.04e- 3    53
 6 KEGG_PATHOGENIC_ESCHERICHIA_COLI_INFECTION       2.1  1.07e- 4 3.04e- 3    29
 7 KEGG_CELL_ADHESION_MOLECULES_CAMS               -1.89 1.9 e- 4 4.38e- 3    81
 8 KEGG_INSULIN_SIGNALING_PATHWAY                   1.91 2.06e- 4 4.38e- 3    73
 9 KEGG_B_CELL_RECEPTOR_SIGNALING_PATHWAY           2.01 2.9 e- 4 5.15e- 3    53
10 KEGG_T_CELL_RECEPTOR_SIGNALING_PATHWAY           1.87 3.03e- 4 5.15e- 3    73
11 KEGG_HEMATOPOIETIC_CELL_LINEAGE                 -1.89 3.61e- 4 5.28e- 3    67
12 KEGG_FC_EPSILON_RI_SIGNALING_PATHWAY             1.91 3.73e- 4 5.28e- 3    57
13 KEGG_AXON_GUIDANCE                              -1.76 4.22e- 4 5.52e- 3   100
14 KEGG_ENDOCYTOSIS                                 1.79 5.08e- 4 6.17e- 3   102
15 KEGG_FOCAL_ADHESION                              1.74 5.82e- 4 6.59e- 3   125
16 KEGG_PANCREATIC_CANCER                           1.89 7.14e- 4 7.59e- 3    45
17 KEGG_LEUKOCYTE_TRANSENDOTHELIAL_MIGRATION        1.8  1.74e- 3 1.74e- 2    61
18 KEGG_REGULATION_OF_ACTIN_CYTOSKELETON            1.62 2.48e- 3 2.34e- 2   115
19 KEGG_JAK_STAT_SIGNALING_PATHWAY                 -1.63 3.08e- 3 2.76e- 2   111
20 KEGG_GNRH_SIGNALING_PATHWAY                      1.78 3.31e- 3 2.82e- 2    55
21 KEGG_COLORECTAL_CANCER                           1.83 3.92e- 3 3.1 e- 2    41
22 KEGG_ERBB_SIGNALING_PATHWAY                      1.72 4.02e- 3 3.1 e- 2    69
23 KEGG_PEROXISOME                                  1.75 5.59e- 3 3.97e- 2    36
24 KEGG_ACUTE_MYELOID_LEUKEMIA                      1.75 5.6 e- 3 3.97e- 2    37
25 KEGG_ADHERENS_JUNCTION                           1.69 8.14e- 3 5.5 e- 2    48
26 KEGG_EPITHELIAL_CELL_SIGNALING_IN_HELICOBACTER…  1.7  8.4 e- 3 5.5 e- 2    37
27 KEGG_UBIQUITIN_MEDIATED_PROTEOLYSIS              1.63 8.83e- 3 5.56e- 2    66
28 KEGG_LYSOSOME                                   -1.63 9.64e- 3 5.78e- 2    61
29 KEGG_NEUROACTIVE_LIGAND_RECEPTOR_INTERACTION    -1.65 9.86e- 3 5.78e- 2    43
30 KEGG_GLYCOSAMINOGLYCAN_BIOSYNTHESIS_CHONDROITI… -1.75 1.02e- 2 5.79e- 2    12
# ℹ 21 more rows
…
cat("\nCytokines with discordant direction:\n")

Cytokines with discordant direction:

Code

platform_df |>
  dplyr::filter(in_soma, !concordant) |>
  select(luminex_name, gene_symbol, log2FC_lx, logFC_soma,
         p_value_lx, P.Value_soma) |>
  mutate(across(where(is.numeric), ~ signif(., 3))) |>
  print()

# A tibble: 24 × 6
   luminex_name     gene_symbol log2FC_lx logFC_soma p_value_lx P.Value_soma
   <chr>            <chr>           <dbl>      <dbl>      <dbl>        <dbl>
 1 SDF-1a           CXCL12        0.0916     -0.182      0.29         0.0656
 2 IL-4             IL4          -0.113       0.22       0.327        0.0438
 3 IL-7             IL7           0.0406     -0.0284     0.724        0.514 
 4 BLC(CXCL13)      CXCL13        0.062      -0.206      0.61         0.0777
 5 EOTAXIN-2(CCL24) CCL24        -0.0578      0.0808     0.456        0.432 
 6 EOTAXIN(CCL11)   CCL11         0.00117    -0.318      1            0.155 
 7 IL-13            IL13         -0.0895      0.093      0.0541       0.433 
 8 IL-31            IL31         -0.0718      0.0402     0.875        0.484 
 9 SCF              KITLG        -0.0285      0.214      0.969        0.205 
10 IFNg             IFNG         -0.069       0.219      0.41         0.167 
# ℹ 14 more rows
…
